@startuml
!includeurl https://bitbucket.org/mastercontrol/plant-common/raw/master/plant-common.iuml
'comment out above and uncomment below to render locally
'!include plant-common-dev.iuml

'Nesting Objects
LAPTOP(laptop, "Laptop") #lightblue {
    WINDOWS_TERMINAL(windows_terminal, "Windows\nTerminal")
    BASH_TERMINAL(bash_terminal, "Bash\nTerminal")
}

ANGULAR(ng, "Angular")
DOCKER(docker, "Docker")
DOCUMENT(doc, "Document")
PDF(pdf, "Pdf")
FOLDER(folder, "Folder") #lightgreen
BROWSER(browser, "Browser") #lightblue
WEBSITE(website, "Website") #lightblue
JAVA(java, "Java")
MC(mc, "MasterControl")


bash_terminal -> java: "<my command>"

@enduml